[
    {
        "model": "models.PremiosTitulos",
        "pk": 1,
        "fields": {
            "id": 1,
            "pessoa_id": 1,
            "nome": "Melhor síntese",
            "ano": 2015,
            "entidade": "UNIP"
        }
    },
    {
        "model": "models.PremiosTitulos",
        "pk": 2,
        "fields": {
            "id": 2,
            "pessoa_id": 2,
            "nome": "Prêmio Nacional de Erudição Agrícola",
            "ano": 2018,
            "entidade": "UNICAMP"
        }
    },
    {
        "model": "models.PremiosTitulos",
        "pk": 3,
        "fields": {
            "id": 3,
            "pessoa_id": 1,
            "nome": "Menção Honrosa",
            "ano": 2017,
            "entidade": "PUC-CAMPINAS"
        }
    },
    {
        "model": "models.PremiosTitulos",
        "pk": 4,
        "fields": {
            "id": 4,
            "pessoa_id": 4,
            "nome": "Melhor Trajetória Curatorial",
            "ano": 2015,
            "entidade": "Bienal Iberoamericana"
        }
    },
    {
        "model": "models.PremiosTitulos",
        "pk": 5,
        "fields": {
            "id": 5,
            "pessoa_id": 2,
            "nome": "Professor Homenageado",
            "ano": 2015,
            "entidade": "FUNDAÇÃO BIENAL SÃO PAULO"
        }
    },
    {
        "model": "models.PremiosTitulos",
        "pk": 6,
        "fields": {
            "id": 6,
            "pessoa_id": 1,
            "nome": "Bolsa Vitae de Artes",
            "ano": 2014,
            "entidade": "IAB-SP"
        }
    }
]